  //GET MY PROFILE DATA

function getMyData(jsoninp) {
    const obj = JSON.parse(jsoninp);
    var ret = "";
    for(var i = 0; i < 5; i++){
     // ret += "<div>";
      //      song name                     album name              
      ret += obj.items[i].name + " - "; /*obj.items[i].album.name + */

      // artists who made it
      for(var j = 0; j < Object.keys(obj.items[i].artists).length; j++){
        if(j !== Object.keys(obj.items[i].artists).length - 1){
            ret += obj.items[i].artists[j].name + ", ";
        } else {
            ret += obj.items[i].artists[j].name;
        }
        
      }
     // ret += "</div>";
    }
    return ret;
}

{
  "items" : [ {
    "album" : {
      "album_type" : "SINGLE",
      "artists" : [ {
        "external_urls" : {
          "spotify" : "https://open.spotify.com/artist/0Njy6yR9LykNKYg9yE23QN"
        },
        "href" : "https://api.spotify.com/v1/artists/0Njy6yR9LykNKYg9yE23QN",
        "id" : "0Njy6yR9LykNKYg9yE23QN",
        "name" : "Nardo Wick",
        "type" : "artist",
        "uri" : "spotify:artist:0Njy6yR9LykNKYg9yE23QN"
      }, {
        "external_urls" : {
          "spotify" : "https://open.spotify.com/artist/1RyvyyTE3xzB2ZywiAwp0i"
        },
        "href" : "https://api.spotify.com/v1/artists/1RyvyyTE3xzB2ZywiAwp0i",
        "id" : "1RyvyyTE3xzB2ZywiAwp0i",
        "name" : "Future",
        "type" : "artist",
        "uri" : "spotify:artist:1RyvyyTE3xzB2ZywiAwp0i"
      }, {
        "external_urls" : {
          "spotify" : "https://open.spotify.com/artist/5f7VJjfbwm532GiveGC0ZK"
        },
        "href" : "https://api.spotify.com/v1/artists/5f7VJjfbwm532GiveGC0ZK",
        "id" : "5f7VJjfbwm532GiveGC0ZK",
        "name" : "Lil Baby",
        "type" : "artist",
        "uri" : "spotify:artist:5f7VJjfbwm532GiveGC0ZK"
      } ],
      "available_markets" : [ "AD", "AE", "AR", "AT", "AU", "BE", "BG", "BH", "BO", "BR", "CA", "CH", "CL", "CO", "CR", "CY", "CZ", "DE", "DK", "DO", "DZ", "EC", "EE", "EG", "ES", "FI", "FR", "GB", "GR", "GT", "HK", "HN", "HU", "ID", "IE", "IL", "IN", "IS", "IT", "JO", "JP", "KW", "LB", "LI", "LT", "LU", "LV", "MA", "MC", "MT", "MX", "MY", "NI", "NL", "NO", "NZ", "OM", "PA", "PE", "PH", "PL", "PS", "PT", "PY", "QA", "RO", "SA", "SE", "SG", "SK", "SV", "TH", "TN", "TR", "TW", "US", "UY", "VN", "ZA" ],
      "external_urls" : {
        "spotify" : "https://open.spotify.com/album/6SEeNB2xGW1kmysKSvWYqC"
      },
      "href" : "https://api.spotify.com/v1/albums/6SEeNB2xGW1kmysKSvWYqC",
      "id" : "6SEeNB2xGW1kmysKSvWYqC",
      "images" : [ {
        "height" : 640,
        "url" : "https://i.scdn.co/image/ab67616d0000b2738469dcac0c94ac594b8a5578",
        "width" : 640
      }, {
        "height" : 300,
        "url" : "https://i.scdn.co/image/ab67616d00001e028469dcac0c94ac594b8a5578",
        "width" : 300
      }, {
        "height" : 64,
        "url" : "https://i.scdn.co/image/ab67616d000048518469dcac0c94ac594b8a5578",
        "width" : 64
      } ],
      "name" : "Me or Sum (feat. Future & Lil Baby)",
      "release_date" : "2021-11-29",
      "release_date_precision" : "day",
      "total_tracks" : 1,
      "type" : "album",
      "uri" : "spotify:album:6SEeNB2xGW1kmysKSvWYqC"
    },
    "artists" : [ {
      "external_urls" : {
        "spotify" : "https://open.spotify.com/artist/0Njy6yR9LykNKYg9yE23QN"
      },
      "href" : "https://api.spotify.com/v1/artists/0Njy6yR9LykNKYg9yE23QN",
      "id" : "0Njy6yR9LykNKYg9yE23QN",
      "name" : "Nardo Wick",
      "type" : "artist",
      "uri" : "spotify:artist:0Njy6yR9LykNKYg9yE23QN"
    }, {
      "external_urls" : {
        "spotify" : "https://open.spotify.com/artist/1RyvyyTE3xzB2ZywiAwp0i"
      },
      "href" : "https://api.spotify.com/v1/artists/1RyvyyTE3xzB2ZywiAwp0i",
      "id" : "1RyvyyTE3xzB2ZywiAwp0i",
      "name" : "Future",
      "type" : "artist",
      "uri" : "spotify:artist:1RyvyyTE3xzB2ZywiAwp0i"
    }, {
      "external_urls" : {
        "spotify" : "https://open.spotify.com/artist/5f7VJjfbwm532GiveGC0ZK"
      },
      "href" : "https://api.spotify.com/v1/artists/5f7VJjfbwm532GiveGC0ZK",
      "id" : "5f7VJjfbwm532GiveGC0ZK",
      "name" : "Lil Baby",
      "type" : "artist",
      "uri" : "spotify:artist:5f7VJjfbwm532GiveGC0ZK"
    } ],
    "available_markets" : [ "AD", "AE", "AR", "AT", "AU", "BE", "BG", "BH", "BO", "BR", "CA", "CH", "CL", "CO", "CR", "CY", "CZ", "DE", "DK", "DO", "DZ", "EC", "EE", "EG", "ES", "FI", "FR", "GB", "GR", "GT", "HK", "HN", "HU", "ID", "IE", "IL", "IN", "IS", "IT", "JO", "JP", "KW", "LB", "LI", "LT", "LU", "LV", "MA", "MC", "MT", "MX", "MY", "NI", "NL", "NO", "NZ", "OM", "PA", "PE", "PH", "PL", "PS", "PT", "PY", "QA", "RO", "SA", "SE", "SG", "SK", "SV", "TH", "TN", "TR", "TW", "US", "UY", "VN", "ZA" ],
    "disc_number" : 1,
    "duration_ms" : 225664,
    "explicit" : true,
    "external_ids" : {
      "isrc" : "USRC12103471"
    },
    "external_urls" : {
      "spotify" : "https://open.spotify.com/track/1qlh1WxuWilyIWRwdsKMuJ"
    },
    "href" : "https://api.spotify.com/v1/tracks/1qlh1WxuWilyIWRwdsKMuJ",
    "id" : "1qlh1WxuWilyIWRwdsKMuJ",
    "is_local" : false,
    "name" : "Me or Sum (feat. Future & Lil Baby)",
    "popularity" : 76,
    "preview_url" : "https://p.scdn.co/mp3-preview/b4b41d607699af13f52b36ae5a98cf9ff2bbac2e?cid=774b29d4f13844c495f206cafdad9c86",
    "track_number" : 1,
    "type" : "track",
    "uri" : "spotify:track:1qlh1WxuWilyIWRwdsKMuJ"
  }, {
    "album" : {
      "album_type" : "ALBUM",
      "artists" : [ {
        "external_urls" : {
          "spotify" : "https://open.spotify.com/artist/0rpUnzu4JIoRkKkGvdcm7b"
        },
        "href" : "https://api.spotify.com/v1/artists/0rpUnzu4JIoRkKkGvdcm7b",
        "id" : "0rpUnzu4JIoRkKkGvdcm7b",
        "name" : "Lil Eazzyy",
        "type" : "artist",
        "uri" : "spotify:artist:0rpUnzu4JIoRkKkGvdcm7b"
      } ],
      "available_markets" : [ "AD", "AE", "AR", "AT", "AU", "BE", "BG", "BH", "BO", "BR", "CA", "CH", "CL", "CO", "CR", "CY", "CZ", "DE", "DK", "DO", "DZ", "EC", "EE", "EG", "ES", "FI", "FR", "GB", "GR", "GT", "HK", "HN", "HU", "ID", "IE", "IL", "IN", "IS", "IT", "JO", "JP", "KW", "LB", "LI", "LT", "LU", "LV", "MA", "MC", "MT", "MX", "MY", "NI", "NL", "NO", "NZ", "OM", "PA", "PE", "PH", "PL", "PS", "PT", "PY", "QA", "RO", "SA", "SE", "SG", "SK", "SV", "TH", "TN", "TR", "TW", "US", "UY", "VN", "ZA" ],
      "external_urls" : {
        "spotify" : "https://open.spotify.com/album/6RJcigjcQHiRUfoIhxCRcB"
      },
      "href" : "https://api.spotify.com/v1/albums/6RJcigjcQHiRUfoIhxCRcB",
      "id" : "6RJcigjcQHiRUfoIhxCRcB",
      "images" : [ {
        "height" : 640,
        "url" : "https://i.scdn.co/image/ab67616d0000b273346114af9c1177aa56d4b4c7",
        "width" : 640
      }, {
        "height" : 300,
        "url" : "https://i.scdn.co/image/ab67616d00001e02346114af9c1177aa56d4b4c7",
        "width" : 300
      }, {
        "height" : 64,
        "url" : "https://i.scdn.co/image/ab67616d00004851346114af9c1177aa56d4b4c7",
        "width" : 64
      } ],
      "name" : "Rookie Of The Year",
      "release_date" : "2021-04-30",
      "release_date_precision" : "day",
      "total_tracks" : 14,
      "type" : "album",
      "uri" : "spotify:album:6RJcigjcQHiRUfoIhxCRcB"
    },
    "artists" : [ {
      "external_urls" : {
        "spotify" : "https://open.spotify.com/artist/0rpUnzu4JIoRkKkGvdcm7b"
      },
      "href" : "https://api.spotify.com/v1/artists/0rpUnzu4JIoRkKkGvdcm7b",
      "id" : "0rpUnzu4JIoRkKkGvdcm7b",
      "name" : "Lil Eazzyy",
      "type" : "artist",
      "uri" : "spotify:artist:0rpUnzu4JIoRkKkGvdcm7b"
    }, {
      "external_urls" : {
        "spotify" : "https://open.spotify.com/artist/5xkFVS6IwwgHEAaRzXc9U3"
      },
      "href" : "https://api.spotify.com/v1/artists/5xkFVS6IwwgHEAaRzXc9U3",
      "id" : "5xkFVS6IwwgHEAaRzXc9U3",
      "name" : "Tay Keith",
      "type" : "artist",
      "uri" : "spotify:artist:5xkFVS6IwwgHEAaRzXc9U3"
    } ],
    "available_markets" : [ "AD", "AE", "AR", "AT", "AU", "BE", "BG", "BH", "BO", "BR", "CA", "CH", "CL", "CO", "CR", "CY", "CZ", "DE", "DK", "DO", "DZ", "EC", "EE", "EG", "ES", "FI", "FR", "GB", "GR", "GT", "HK", "HN", "HU", "ID", "IE", "IL", "IN", "IS", "IT", "JO", "JP", "KW", "LB", "LI", "LT", "LU", "LV", "MA", "MC", "MT", "MX", "MY", "NI", "NL", "NO", "NZ", "OM", "PA", "PE", "PH", "PL", "PS", "PT", "PY", "QA", "RO", "SA", "SE", "SG", "SK", "SV", "TH", "TN", "TR", "TW", "US", "UY", "VN", "ZA" ],
    "disc_number" : 1,
    "duration_ms" : 133011,
    "explicit" : true,
    "external_ids" : {
      "isrc" : "USAT22101509"
    },
    "external_urls" : {
      "spotify" : "https://open.spotify.com/track/0WRXHGJI23n8jqiOrOOzZT"
    },
    "href" : "https://api.spotify.com/v1/tracks/0WRXHGJI23n8jqiOrOOzZT",
    "id" : "0WRXHGJI23n8jqiOrOOzZT",
    "is_local" : false,
    "name" : "Spinnin (feat. Tay Keith)",
    "popularity" : 51,
    "preview_url" : "https://p.scdn.co/mp3-preview/b9ba64e37066caf989646e01626cd286ca6facf9?cid=774b29d4f13844c495f206cafdad9c86",
    "track_number" : 2,
    "type" : "track",
    "uri" : "spotify:track:0WRXHGJI23n8jqiOrOOzZT"
  }, {
    "album" : {
      "album_type" : "ALBUM",
      "artists" : [ {
        "external_urls" : {
          "spotify" : "https://open.spotify.com/artist/3TVXtAsR1Inumwj472S9r4"
        },
        "href" : "https://api.spotify.com/v1/artists/3TVXtAsR1Inumwj472S9r4",
        "id" : "3TVXtAsR1Inumwj472S9r4",
        "name" : "Drake",
        "type" : "artist",
        "uri" : "spotify:artist:3TVXtAsR1Inumwj472S9r4"
      } ],
      "available_markets" : [ "AD", "AE", "AR", "AT", "AU", "BE", "BG", "BH", "BO", "BR", "CA", "CH", "CL", "CO", "CR", "CY", "CZ", "DE", "DK", "DO", "DZ", "EC", "EE", "EG", "ES", "FI", "FR", "GB", "GR", "GT", "HK", "HN", "HU", "ID", "IE", "IL", "IN", "IS", "IT", "JO", "JP", "KW", "LB", "LI", "LT", "LU", "LV", "MA", "MC", "MT", "MX", "MY", "NI", "NL", "NO", "NZ", "OM", "PA", "PE", "PH", "PL", "PS", "PT", "PY", "QA", "RO", "SA", "SE", "SG", "SK", "SV", "TH", "TN", "TR", "TW", "US", "UY", "VN", "ZA" ],
      "external_urls" : {
        "spotify" : "https://open.spotify.com/album/3SpBlxme9WbeQdI9kx7KAV"
      },
      "href" : "https://api.spotify.com/v1/albums/3SpBlxme9WbeQdI9kx7KAV",
      "id" : "3SpBlxme9WbeQdI9kx7KAV",
      "images" : [ {
        "height" : 640,
        "url" : "https://i.scdn.co/image/ab67616d0000b273cd945b4e3de57edd28481a3f",
        "width" : 640
      }, {
        "height" : 300,
        "url" : "https://i.scdn.co/image/ab67616d00001e02cd945b4e3de57edd28481a3f",
        "width" : 300
      }, {
        "height" : 64,
        "url" : "https://i.scdn.co/image/ab67616d00004851cd945b4e3de57edd28481a3f",
        "width" : 64
      } ],
      "name" : "Certified Lover Boy",
      "release_date" : "2021-09-03",
      "release_date_precision" : "day",
      "total_tracks" : 21,
      "type" : "album",
      "uri" : "spotify:album:3SpBlxme9WbeQdI9kx7KAV"
    },
    "artists" : [ {
      "external_urls" : {
        "spotify" : "https://open.spotify.com/artist/3TVXtAsR1Inumwj472S9r4"
      },
      "href" : "https://api.spotify.com/v1/artists/3TVXtAsR1Inumwj472S9r4",
      "id" : "3TVXtAsR1Inumwj472S9r4",
      "name" : "Drake",
      "type" : "artist",
      "uri" : "spotify:artist:3TVXtAsR1Inumwj472S9r4"
    } ],
    "available_markets" : [ "AD", "AE", "AR", "AT", "AU", "BE", "BG", "BH", "BO", "BR", "CA", "CH", "CL", "CO", "CR", "CY", "CZ", "DE", "DK", "DO", "DZ", "EC", "EE", "EG", "ES", "FI", "FR", "GB", "GR", "GT", "HK", "HN", "HU", "ID", "IE", "IL", "IN", "IS", "IT", "JO", "JP", "KW", "LB", "LI", "LT", "LU", "LV", "MA", "MC", "MT", "MX", "MY", "NI", "NL", "NO", "NZ", "OM", "PA", "PE", "PH", "PL", "PS", "PT", "PY", "QA", "RO", "SA", "SE", "SG", "SK", "SV", "TH", "TN", "TR", "TW", "US", "UY", "VN", "ZA" ],
    "disc_number" : 1,
    "duration_ms" : 204346,
    "explicit" : true,
    "external_ids" : {
      "isrc" : "USUG12104408"
    },
    "external_urls" : {
      "spotify" : "https://open.spotify.com/track/2tUL6dZf1mywCj5WvCPZw6"
    },
    "href" : "https://api.spotify.com/v1/tracks/2tUL6dZf1mywCj5WvCPZw6",
    "id" : "2tUL6dZf1mywCj5WvCPZw6",
    "is_local" : false,
    "name" : "No Friends In The Industry",
    "popularity" : 80,
    "preview_url" : "https://p.scdn.co/mp3-preview/6eaa972f7b387ec5bfce254dd99367845a77ba72?cid=774b29d4f13844c495f206cafdad9c86",
    "track_number" : 12,
    "type" : "track",
    "uri" : "spotify:track:2tUL6dZf1mywCj5WvCPZw6"
  }, {
    "album" : {
      "album_type" : "ALBUM",
      "artists" : [ {
        "external_urls" : {
          "spotify" : "https://open.spotify.com/artist/3TVXtAsR1Inumwj472S9r4"
        },
        "href" : "https://api.spotify.com/v1/artists/3TVXtAsR1Inumwj472S9r4",
        "id" : "3TVXtAsR1Inumwj472S9r4",
        "name" : "Drake",
        "type" : "artist",
        "uri" : "spotify:artist:3TVXtAsR1Inumwj472S9r4"
      } ],
      "available_markets" : [ "AD", "AE", "AR", "AT", "AU", "BE", "BG", "BH", "BO", "BR", "CA", "CH", "CL", "CO", "CR", "CY", "CZ", "DE", "DK", "DO", "DZ", "EC", "EE", "EG", "ES", "FI", "FR", "GB", "GR", "GT", "HK", "HN", "HU", "ID", "IE", "IL", "IN", "IS", "IT", "JO", "JP", "KW", "LB", "LI", "LT", "LU", "LV", "MA", "MC", "MT", "MX", "MY", "NI", "NL", "NO", "NZ", "OM", "PA", "PE", "PH", "PL", "PS", "PT", "PY", "QA", "RO", "SA", "SE", "SG", "SK", "SV", "TH", "TN", "TR", "TW", "US", "UY", "VN", "ZA" ],
      "external_urls" : {
        "spotify" : "https://open.spotify.com/album/3SpBlxme9WbeQdI9kx7KAV"
      },
      "href" : "https://api.spotify.com/v1/albums/3SpBlxme9WbeQdI9kx7KAV",
      "id" : "3SpBlxme9WbeQdI9kx7KAV",
      "images" : [ {
        "height" : 640,
        "url" : "https://i.scdn.co/image/ab67616d0000b273cd945b4e3de57edd28481a3f",
        "width" : 640
      }, {
        "height" : 300,
        "url" : "https://i.scdn.co/image/ab67616d00001e02cd945b4e3de57edd28481a3f",
        "width" : 300
      }, {
        "height" : 64,
        "url" : "https://i.scdn.co/image/ab67616d00004851cd945b4e3de57edd28481a3f",
        "width" : 64
      } ],
      "name" : "Certified Lover Boy",
      "release_date" : "2021-09-03",
      "release_date_precision" : "day",
      "total_tracks" : 21,
      "type" : "album",
      "uri" : "spotify:album:3SpBlxme9WbeQdI9kx7KAV"
    },
    "artists" : [ {
      "external_urls" : {
        "spotify" : "https://open.spotify.com/artist/3TVXtAsR1Inumwj472S9r4"
      },
      "href" : "https://api.spotify.com/v1/artists/3TVXtAsR1Inumwj472S9r4",
      "id" : "3TVXtAsR1Inumwj472S9r4",
      "name" : "Drake",
      "type" : "artist",
      "uri" : "spotify:artist:3TVXtAsR1Inumwj472S9r4"
    }, {
      "external_urls" : {
        "spotify" : "https://open.spotify.com/artist/5f7VJjfbwm532GiveGC0ZK"
      },
      "href" : "https://api.spotify.com/v1/artists/5f7VJjfbwm532GiveGC0ZK",
      "id" : "5f7VJjfbwm532GiveGC0ZK",
      "name" : "Lil Baby",
      "type" : "artist",
      "uri" : "spotify:artist:5f7VJjfbwm532GiveGC0ZK"
    } ],
    "available_markets" : [ "AD", "AE", "AR", "AT", "AU", "BE", "BG", "BH", "BO", "BR", "CA", "CH", "CL", "CO", "CR", "CY", "CZ", "DE", "DK", "DO", "DZ", "EC", "EE", "EG", "ES", "FI", "FR", "GB", "GR", "GT", "HK", "HN", "HU", "ID", "IE", "IL", "IN", "IS", "IT", "JO", "JP", "KW", "LB", "LI", "LT", "LU", "LV", "MA", "MC", "MT", "MX", "MY", "NI", "NL", "NO", "NZ", "OM", "PA", "PE", "PH", "PL", "PS", "PT", "PY", "QA", "RO", "SA", "SE", "SG", "SK", "SV", "TH", "TN", "TR", "TW", "US", "UY", "VN", "ZA" ],
    "disc_number" : 1,
    "duration_ms" : 221979,
    "explicit" : true,
    "external_ids" : {
      "isrc" : "USUG12104399"
    },
    "external_urls" : {
      "spotify" : "https://open.spotify.com/track/37Nqx7iavZpotJSDXZWbJ3"
    },
    "href" : "https://api.spotify.com/v1/tracks/37Nqx7iavZpotJSDXZWbJ3",
    "id" : "37Nqx7iavZpotJSDXZWbJ3",
    "is_local" : false,
    "name" : "Girls Want Girls (with Lil Baby)",
    "popularity" : 85,
    "preview_url" : "https://p.scdn.co/mp3-preview/4bb69b3f62dd70845e0f7206c229a75f1c98bddc?cid=774b29d4f13844c495f206cafdad9c86",
    "track_number" : 3,
    "type" : "track",
    "uri" : "spotify:track:37Nqx7iavZpotJSDXZWbJ3"
  }, {
    "album" : {
      "album_type" : "ALBUM",
      "artists" : [ {
        "external_urls" : {
          "spotify" : "https://open.spotify.com/artist/3TVXtAsR1Inumwj472S9r4"
        },
        "href" : "https://api.spotify.com/v1/artists/3TVXtAsR1Inumwj472S9r4",
        "id" : "3TVXtAsR1Inumwj472S9r4",
        "name" : "Drake",
        "type" : "artist",
        "uri" : "spotify:artist:3TVXtAsR1Inumwj472S9r4"
      } ],
      "available_markets" : [ "AD", "AE", "AR", "AT", "AU", "BE", "BG", "BH", "BO", "BR", "CA", "CH", "CL", "CO", "CR", "CY", "CZ", "DE", "DK", "DO", "DZ", "EC", "EE", "EG", "ES", "FI", "FR", "GB", "GR", "GT", "HK", "HN", "HU", "ID", "IE", "IL", "IN", "IS", "IT", "JO", "JP", "KW", "LB", "LI", "LT", "LU", "LV", "MA", "MC", "MT", "MX", "MY", "NI", "NL", "NO", "NZ", "OM", "PA", "PE", "PH", "PL", "PS", "PT", "PY", "QA", "RO", "SA", "SE", "SG", "SK", "SV", "TH", "TN", "TR", "TW", "US", "UY", "VN", "ZA" ],
      "external_urls" : {
        "spotify" : "https://open.spotify.com/album/3SpBlxme9WbeQdI9kx7KAV"
      },
      "href" : "https://api.spotify.com/v1/albums/3SpBlxme9WbeQdI9kx7KAV",
      "id" : "3SpBlxme9WbeQdI9kx7KAV",
      "images" : [ {
        "height" : 640,
        "url" : "https://i.scdn.co/image/ab67616d0000b273cd945b4e3de57edd28481a3f",
        "width" : 640
      }, {
        "height" : 300,
        "url" : "https://i.scdn.co/image/ab67616d00001e02cd945b4e3de57edd28481a3f",
        "width" : 300
      }, {
        "height" : 64,
        "url" : "https://i.scdn.co/image/ab67616d00004851cd945b4e3de57edd28481a3f",
        "width" : 64
      } ],
      "name" : "Certified Lover Boy",
      "release_date" : "2021-09-03",
      "release_date_precision" : "day",
      "total_tracks" : 21,
      "type" : "album",
      "uri" : "spotify:album:3SpBlxme9WbeQdI9kx7KAV"
    },
    "artists" : [ {
      "external_urls" : {
        "spotify" : "https://open.spotify.com/artist/3TVXtAsR1Inumwj472S9r4"
      },
      "href" : "https://api.spotify.com/v1/artists/3TVXtAsR1Inumwj472S9r4",
      "id" : "3TVXtAsR1Inumwj472S9r4",
      "name" : "Drake",
      "type" : "artist",
      "uri" : "spotify:artist:3TVXtAsR1Inumwj472S9r4"
    } ],
    "available_markets" : [ "AD", "AE", "AR", "AT", "AU", "BE", "BG", "BH", "BO", "BR", "CA", "CH", "CL", "CO", "CR", "CY", "CZ", "DE", "DK", "DO", "DZ", "EC", "EE", "EG", "ES", "FI", "FR", "GB", "GR", "GT", "HK", "HN", "HU", "ID", "IE", "IL", "IN", "IS", "IT", "JO", "JP", "KW", "LB", "LI", "LT", "LU", "LV", "MA", "MC", "MT", "MX", "MY", "NI", "NL", "NO", "NZ", "OM", "PA", "PE", "PH", "PL", "PS", "PT", "PY", "QA", "RO", "SA", "SE", "SG", "SK", "SV", "TH", "TN", "TR", "TW", "US", "UY", "VN", "ZA" ],
    "disc_number" : 1,
    "duration_ms" : 178623,
    "explicit" : true,
    "external_ids" : {
      "isrc" : "USUG12104398"
    },
    "external_urls" : {
      "spotify" : "https://open.spotify.com/track/6jy9yJfgCsMHdu2Oz4BGKX"
    },
    "href" : "https://api.spotify.com/v1/tracks/6jy9yJfgCsMHdu2Oz4BGKX",
    "id" : "6jy9yJfgCsMHdu2Oz4BGKX",
    "is_local" : false,
    "name" : "Papi’s Home",
    "popularity" : 76,
    "preview_url" : "https://p.scdn.co/mp3-preview/08dc6ccdf68b4daa157920ced690dc7767c72df3?cid=774b29d4f13844c495f206cafdad9c86",
    "track_number" : 2,
    "type" : "track",
    "uri" : "spotify:track:6jy9yJfgCsMHdu2Oz4BGKX"
  } ],
  "total" : 50,
  "limit" : 5,
  "offset" : 0,
  "previous" : null,
  "href" : "https://api.spotify.com/v1/me/top/tracks?limit=5&offset=0",
  "next" : "https://api.spotify.com/v1/me/top/tracks?limit=5&offset=5"
}
